{
  "success": true,
  "names": [
    {
      "id": 301,
      "unique_id": "english_b_girl_1",
      "letter": "b",
      "name": "Bhoomika",
      "name_hindi": "भूमिका",
      "meaning": "Role, Earth",
      "meaning_hindi": "भूमिका, धरती",
      "description": "Meaningful modern name often meaning role or earth",
      "description_hindi": "भूमि या भूमिका का अर्थ रखने वाला आधुनिक नाम",
      "origin": "Sanskrit",
      "origin_hindi": "संस्कृत",
      "numerology": 1,
      "rashi": "Mesh",
      "rashi_hindi": "मेष",
      "nakshatra": "Ashwini",
      "nakshatra_hindi": "अश्विनी",
      "gender": "Girl",
      "popularity": 1000,
      "lucky_number": 1,
      "lucky_color": "Green",
      "lucky_color_hindi": "हरा",
      "status": "active",
      "created_at": "2025-11-04 07:50:25"
    },
    {
      "id": 302,
      "unique_id": "english_b_girl_2",
      "letter": "b",
      "name": "Bhavya",
      "name_hindi": "भव्य",
      "meaning": "Grand, Splendid",
      "meaning_hindi": "भव्य, शानदार",
      "description": "Elegant name meaning magnificent",
      "description_hindi": "शानदार का अर्थ रखने वाला सुरुचिपूर्ण नाम",
      "origin": "Sanskrit",
      "origin_hindi": "संस्कृत",
      "numerology": 2,
      "rashi": "Mesh",
      "rashi_hindi": "मेष",
      "nakshatra": "Bharani",
      "nakshatra_hindi": "भरणी",
      "gender": "Girl",
      "popularity": 999,
      "lucky_number": 2,
      "lucky_color": "Purple",
      "lucky_color_hindi": "बैंगनी",
      "status": "active",
      "created_at": "2025-11-04 07:50:25"
    },
    {
      "id": 303,
      "unique_id": "english_b_girl_3",
      "letter": "b",
      "name": "Bela",
      "name_hindi": "बेला",
      "meaning": "Beautiful",
      "meaning_hindi": "सुंदर",
      "description": "Simple classic name meaning beautiful",
      "description_hindi": "सुंदर का अर्थ रखने वाला पारंपरिक नाम",
      "origin": "Sanskrit",
      "origin_hindi": "संस्कृत",
      "numerology": 3,
      "rashi": "Mesh",
      "rashi_hindi": "मेष",
      "nakshatra": "Krittika",
      "nakshatra_hindi": "कृत्तिका",
      "gender": "Girl",
      "popularity": 998,
      "lucky_number": 3,
      "lucky_color": "Pink",
      "lucky_color_hindi": "गुलाबी",
      "status": "active",
      "created_at": "2025-11-04 07:50:25"
    },
    {
      "id": 304,
      "unique_id": "english_b_girl_4",
      "letter": "b",
      "name": "Bindiya",
      "name_hindi": "बिंदिया",
      "meaning": "Small Decorative Mark",
      "meaning_hindi": "लघु सजावटी चिन्ह",
      "description": "Popular feminine name after the forehead mark",
      "description_hindi": "ललाट पर पहने जाने वाले चिन्ह के बाद प्रसिद्ध नाम",
      "origin": "Sanskrit",
      "origin_hindi": "संस्कृत",
      "numerology": 4,
      "rashi": "Mesh",
      "rashi_hindi": "मेष",
      "nakshatra": "Ashwini",
      "nakshatra_hindi": "अश्विनी",
      "gender": "Girl",
      "popularity": 997,
      "lucky_number": 4,
      "lucky_color": "Red",
      "lucky_color_hindi": "लाल",
      "status": "active",
      "created_at": "2025-11-04 07:50:25"
    },
    {
      "id": 305,
      "unique_id": "english_b_girl_5",
      "letter": "b",
      "name": "Bina",
      "name_hindi": "बीना",
      "meaning": "Melody, Musical Instrument",
      "meaning_hindi": "सुर, वाद्य",
      "description": "Simple traditional name",
      "description_hindi": "पारंपरिक सरल नाम",
      "origin": "Sanskrit",
      "origin_hindi": "संस्कृत",
      "numerology": 5,
      "rashi": "Mesh",
      "rashi_hindi": "मेष",
      "nakshatra": "Bharani",
      "nakshatra_hindi": "भरणी",
      "gender": "Girl",
      "popularity": 996,
      "lucky_number": 5,
      "lucky_color": "Blue",
      "lucky_color_hindi": "नीला",
      "status": "active",
      "created_at": "2025-11-04 07:50:25"
    },
    {
      "id": 306,
      "unique_id": "english_b_girl_6",
      "letter": "b",
      "name": "Brinda",
      "name_hindi": "ब्रिंदा",
      "meaning": "Tulsi, Sacred Basil",
      "meaning_hindi": "तुलसी, पवित्र तुलसी",
      "description": "Often associated with nature and devotion",
      "description_hindi": "प्रकृति और भक्ति से जुड़ा नाम",
      "origin": "Sanskrit",
      "origin_hindi": "संस्कृत",
      "numerology": 6,
      "rashi": "Mesh",
      "rashi_hindi": "मेष",
      "nakshatra": "Krittika",
      "nakshatra_hindi": "कृत्तिका",
      "gender": "Girl",
      "popularity": 995,
      "lucky_number": 6,
      "lucky_color": "Green",
      "lucky_color_hindi": "हरा",
      "status": "active",
      "created_at": "2025-11-04 07:50:25"
    },
    {
      "id": 307,
      "unique_id": "english_b_girl_7",
      "letter": "b",
      "name": "Bani",
      "name_hindi": "बानी",
      "meaning": "Speech, Word",
      "meaning_hindi": "भाषण, शब्द",
      "description": "Short and poetic name",
      "description_hindi": "काव्यात्मक संक्षिप्त नाम",
      "origin": "Sanskrit",
      "origin_hindi": "संस्कृत",
      "numerology": 7,
      "rashi": "Mesh",
      "rashi_hindi": "मेष",
      "nakshatra": "Ashwini",
      "nakshatra_hindi": "अश्विनी",
      "gender": "Girl",
      "popularity": 994,
      "lucky_number": 7,
      "lucky_color": "Pink",
      "lucky_color_hindi": "गुलाबी",
      "status": "active",
      "created_at": "2025-11-04 07:50:25"
    },
    {
      "id": 308,
      "unique_id": "english_b_girl_8",
      "letter": "b",
      "name": "Bhumika",
      "name_hindi": "भूमिका",
      "meaning": "Role, Earth",
      "meaning_hindi": "भूमिका, धरती",
      "description": "Repeated popular feminine name",
      "description_hindi": "लोकप्रिय महिला नाम",
      "origin": "Sanskrit",
      "origin_hindi": "संस्कृत",
      "numerology": 8,
      "rashi": "Mesh",
      "rashi_hindi": "मेष",
      "nakshatra": "Bharani",
      "nakshatra_hindi": "भरणी",
      "gender": "Girl",
      "popularity": 993,
      "lucky_number": 8,
      "lucky_color": "Green",
      "lucky_color_hindi": "हरा",
      "status": "active",
      "created_at": "2025-11-04 07:50:25"
    },
    {
      "id": 309,
      "unique_id": "english_b_girl_9",
      "letter": "b",
      "name": "Bhavini",
      "name_hindi": "भाविनी",
      "meaning": "Emotional, Sentimental",
      "meaning_hindi": "भावनात्मक, संवेदनशील",
      "description": "Feminine form of Bhavik",
      "description_hindi": "भाविक का स्त्री रूप",
      "origin": "Sanskrit",
      "origin_hindi": "संस्कृत",
      "numerology": 9,
      "rashi": "Mesh",
      "rashi_hindi": "मेष",
      "nakshatra": "Krittika",
      "nakshatra_hindi": "कृत्तिका",
      "gender": "Girl",
      "popularity": 992,
      "lucky_number": 9,
      "lucky_color": "Purple",
      "lucky_color_hindi": "बैंगनी",
      "status": "active",
      "created_at": "2025-11-04 07:50:25"
    },
    {
      "id": 310,
      "unique_id": "english_b_girl_10",
      "letter": "b",
      "name": "Bhanvi",
      "name_hindi": "भान्वी",
      "meaning": "Sunray, Bright",
      "meaning_hindi": "सूर्यकिरण, दीप्ति",
      "description": "Modern feminine name meaning radiance",
      "description_hindi": "दीप्ति का अर्थ रखने वाला आधुनिक स्त्री नाम",
      "origin": "Sanskrit",
      "origin_hindi": "संस्कृत",
      "numerology": 1,
      "rashi": "Mesh",
      "rashi_hindi": "मेष",
      "nakshatra": "Ashwini",
      "nakshatra_hindi": "अश्विनी",
      "gender": "Girl",
      "popularity": 991,
      "lucky_number": 1,
      "lucky_color": "Orange",
      "lucky_color_hindi": "नारंगी",
      "status": "active",
      "created_at": "2025-11-04 07:50:25"
    },
    {
      "id": 311,
      "unique_id": "english_b_girl_11",
      "letter": "b",
      "name": "Bhawana",
      "name_hindi": "भावना",
      "meaning": "Emotion, Feeling",
      "meaning_hindi": "भाव, अनुभूति",
      "description": "Graceful name meaning sentiments",
      "description_hindi": "भावनाओं का अर्थ रखने वाला सुंदर नाम",
      "origin": "Sanskrit",
      "origin_hindi": "संस्कृत",
      "numerology": 2,
      "rashi": "Mesh",
      "rashi_hindi": "मेष",
      "nakshatra": "Bharani",
      "nakshatra_hindi": "भरणी",
      "gender": "Girl",
      "popularity": 990,
      "lucky_number": 2,
      "lucky_color": "Pink",
      "lucky_color_hindi": "गुलाबी",
      "status": "active",
      "created_at": "2025-11-04 07:50:25"
    },
    {
      "id": 312,
      "unique_id": "english_b_girl_12",
      "letter": "b",
      "name": "Bela",
      "name_hindi": "बेला",
      "meaning": "Beautiful",
      "meaning_hindi": "सुंदर",
      "description": "Repeated variant of Bela",
      "description_hindi": "बेला का रूप",
      "origin": "Sanskrit",
      "origin_hindi": "संस्कृत",
      "numerology": 3,
      "rashi": "Mesh",
      "rashi_hindi": "मेष",
      "nakshatra": "Krittika",
      "nakshatra_hindi": "कृत्तिका",
      "gender": "Girl",
      "popularity": 989,
      "lucky_number": 3,
      "lucky_color": "Red",
      "lucky_color_hindi": "लाल",
      "status": "active",
      "created_at": "2025-11-04 07:50:25"
    },
    {
      "id": 313,
      "unique_id": "english_b_girl_13",
      "letter": "b",
      "name": "Bhakti",
      "name_hindi": "भक्ति",
      "meaning": "Devotion",
      "meaning_hindi": "भक्ति",
      "description": "Spiritual feminine name meaning devotion",
      "description_hindi": "भक्ति का अर्थ रखने वाला धार्मिक नाम",
      "origin": "Sanskrit",
      "origin_hindi": "संस्कृत",
      "numerology": 4,
      "rashi": "Mesh",
      "rashi_hindi": "मेष",
      "nakshatra": "Ashwini",
      "nakshatra_hindi": "अश्विनी",
      "gender": "Girl",
      "popularity": 988,
      "lucky_number": 4,
      "lucky_color": "White",
      "lucky_color_hindi": "सफेद",
      "status": "active",
      "created_at": "2025-11-04 07:50:25"
    },
    {
      "id": 314,
      "unique_id": "english_b_girl_14",
      "letter": "b",
      "name": "Bela",
      "name_hindi": "बेला",
      "meaning": "Moonlight, Beautiful",
      "meaning_hindi": "चाँदनी, सुन्दर",
      "description": "Poetic feminine name",
      "description_hindi": "काव्यात्मक महिला नाम",
      "origin": "Sanskrit",
      "origin_hindi": "संस्कृत",
      "numerology": 5,
      "rashi": "Mesh",
      "rashi_hindi": "मेष",
      "nakshatra": "Bharani",
      "nakshatra_hindi": "भरणी",
      "gender": "Girl",
      "popularity": 987,
      "lucky_number": 5,
      "lucky_color": "Silver",
      "lucky_color_hindi": "चांदी",
      "status": "active",
      "created_at": "2025-11-04 07:50:25"
    },
    {
      "id": 315,
      "unique_id": "english_b_girl_15",
      "letter": "b",
      "name": "Bimala",
      "name_hindi": "बिमला",
      "meaning": "Pure, Spotless",
      "meaning_hindi": "निर्मल, पवित्र",
      "description": "Classical feminine name meaning pure",
      "description_hindi": "शुद्ध का अर्थ रखने वाला पारंपरिक महिला नाम",
      "origin": "Sanskrit",
      "origin_hindi": "संस्कृत",
      "numerology": 6,
      "rashi": "Mesh",
      "rashi_hindi": "मेष",
      "nakshatra": "Krittika",
      "nakshatra_hindi": "कृत्तिका",
      "gender": "Girl",
      "popularity": 986,
      "lucky_number": 6,
      "lucky_color": "White",
      "lucky_color_hindi": "सफेद",
      "status": "active",
      "created_at": "2025-11-04 07:50:25"
    },
    {
      "id": 316,
      "unique_id": "english_b_girl_16",
      "letter": "b",
      "name": "Belaisha",
      "name_hindi": "बेलैशा",
      "meaning": "Beautiful and Graceful",
      "meaning_hindi": "सुंदर और सुशोभित",
      "description": "Modern invented feminine name",
      "description_hindi": "आधुनिक रचित महिला नाम",
      "origin": "Sanskrit",
      "origin_hindi": "संस्कृत",
      "numerology": 7,
      "rashi": "Mesh",
      "rashi_hindi": "मेष",
      "nakshatra": "Ashwini",
      "nakshatra_hindi": "अश्विनी",
      "gender": "Girl",
      "popularity": 985,
      "lucky_number": 7,
      "lucky_color": "Pink",
      "lucky_color_hindi": "गुलाबी",
      "status": "active",
      "created_at": "2025-11-04 07:50:25"
    },
    {
      "id": 317,
      "unique_id": "english_b_girl_17",
      "letter": "b",
      "name": "Bansuri",
      "name_hindi": "बंसुरी",
      "meaning": "Flute",
      "meaning_hindi": "बांसुरी",
      "description": "Musical feminine name",
      "description_hindi": "संगीत से जुड़ा महिला नाम",
      "origin": "Sanskrit",
      "origin_hindi": "संस्कृत",
      "numerology": 8,
      "rashi": "Mesh",
      "rashi_hindi": "मेष",
      "nakshatra": "Bharani",
      "nakshatra_hindi": "भरणी",
      "gender": "Girl",
      "popularity": 984,
      "lucky_number": 8,
      "lucky_color": "Yellow",
      "lucky_color_hindi": "पीला",
      "status": "active",
      "created_at": "2025-11-04 07:50:25"
    },
    {
      "id": 318,
      "unique_id": "english_b_girl_18",
      "letter": "b",
      "name": "Brihana",
      "name_hindi": "ब्रीहना",
      "meaning": "Expansive, Great",
      "meaning_hindi": "विस्तृत, महान",
      "description": "Poetic feminine name",
      "description_hindi": "काव्यात्मक महिला नाम",
      "origin": "Sanskrit",
      "origin_hindi": "संस्कृत",
      "numerology": 9,
      "rashi": "Mesh",
      "rashi_hindi": "मेष",
      "nakshatra": "Krittika",
      "nakshatra_hindi": "कृत्तिका",
      "gender": "Girl",
      "popularity": 983,
      "lucky_number": 9,
      "lucky_color": "Purple",
      "lucky_color_hindi": "बैंगनी",
      "status": "active",
      "created_at": "2025-11-04 07:50:25"
    },
    {
      "id": 319,
      "unique_id": "english_b_girl_19",
      "letter": "b",
      "name": "Bindu",
      "name_hindi": "बिंदु",
      "meaning": "Point, Drop",
      "meaning_hindi": "बिंदु, बूंद",
      "description": "Short classical feminine name",
      "description_hindi": "क्लासिक संक्षिप्त महिला नाम",
      "origin": "Sanskrit",
      "origin_hindi": "संस्कृत",
      "numerology": 1,
      "rashi": "Mesh",
      "rashi_hindi": "मेष",
      "nakshatra": "Ashwini",
      "nakshatra_hindi": "अश्विनी",
      "gender": "Girl",
      "popularity": 982,
      "lucky_number": 1,
      "lucky_color": "Blue",
      "lucky_color_hindi": "नीला",
      "status": "active",
      "created_at": "2025-11-04 07:50:25"
    },
    {
      "id": 320,
      "unique_id": "english_b_girl_20",
      "letter": "b",
      "name": "Belaani",
      "name_hindi": "बेलानी",
      "meaning": "Graceful Beauty",
      "meaning_hindi": "शालीन सुन्दरता",
      "description": "Modern compound feminine name",
      "description_hindi": "आधुनिक संयुक्त महिला नाम",
      "origin": "Sanskrit",
      "origin_hindi": "संस्कृत",
      "numerology": 2,
      "rashi": "Mesh",
      "rashi_hindi": "मेष",
      "nakshatra": "Bharani",
      "nakshatra_hindi": "भरणी",
      "gender": "Girl",
      "popularity": 981,
      "lucky_number": 2,
      "lucky_color": "Pink",
      "lucky_color_hindi": "गुलाबी",
      "status": "active",
      "created_at": "2025-11-04 07:50:25"
    },
    {
      "id": 321,
      "unique_id": "english_b_girl_21",
      "letter": "b",
      "name": "Bodhi",
      "name_hindi": "बोधि",
      "meaning": "Awakening (fem usage)",
      "meaning_hindi": "जागरण (स्त्री उपयोग)",
      "description": "Gender-neutral spiritual name used for girls",
      "description_hindi": "लड़कियों के लिए प्रयुक्त आध्यात्मिक नाम",
      "origin": "Sanskrit",
      "origin_hindi": "संस्कृत",
      "numerology": 3,
      "rashi": "Mesh",
      "rashi_hindi": "मेष",
      "nakshatra": "Krittika",
      "nakshatra_hindi": "कृत्तिका",
      "gender": "Girl",
      "popularity": 980,
      "lucky_number": 3,
      "lucky_color": "White",
      "lucky_color_hindi": "सफेद",
      "status": "active",
      "created_at": "2025-11-04 07:50:25"
    },
    {
      "id": 322,
      "unique_id": "english_b_girl_22",
      "letter": "b",
      "name": "Bimathi",
      "name_hindi": "बिमथी",
      "meaning": "Gentle Light",
      "meaning_hindi": "मृदु प्रकाश",
      "description": "Invented gentle feminine name",
      "description_hindi": "मृदु स्त्री नाम",
      "origin": "Sanskrit",
      "origin_hindi": "संस्कृत",
      "numerology": 4,
      "rashi": "Mesh",
      "rashi_hindi": "मेष",
      "nakshatra": "Ashwini",
      "nakshatra_hindi": "अश्विनी",
      "gender": "Girl",
      "popularity": 979,
      "lucky_number": 4,
      "lucky_color": "Yellow",
      "lucky_color_hindi": "पीला",
      "status": "active",
      "created_at": "2025-11-04 07:50:25"
    },
    {
      "id": 323,
      "unique_id": "english_b_girl_23",
      "letter": "b",
      "name": "Banshika",
      "name_hindi": "बंशिका",
      "meaning": "Belonging to the flute",
      "meaning_hindi": "बांसुरी से संबंधित",
      "description": "Melodic feminine name",
      "description_hindi": "संगीतात्मक स्त्री नाम",
      "origin": "Sanskrit",
      "origin_hindi": "संस्कृत",
      "numerology": 5,
      "rashi": "Mesh",
      "rashi_hindi": "मेष",
      "nakshatra": "Bharani",
      "nakshatra_hindi": "भरणी",
      "gender": "Girl",
      "popularity": 978,
      "lucky_number": 5,
      "lucky_color": "Blue",
      "lucky_color_hindi": "नीला",
      "status": "active",
      "created_at": "2025-11-04 07:50:25"
    },
    {
      "id": 324,
      "unique_id": "english_b_girl_24",
      "letter": "b",
      "name": "Bhavika",
      "name_hindi": "भाविका",
      "meaning": "Well-meaning, Emotional",
      "meaning_hindi": "सद्भावना पूर्ण, भावुक",
      "description": "Feminine form of Bhavik",
      "description_hindi": "भाविक का स्त्री रूप",
      "origin": "Sanskrit",
      "origin_hindi": "संस्कृत",
      "numerology": 6,
      "rashi": "Mesh",
      "rashi_hindi": "मेष",
      "nakshatra": "Krittika",
      "nakshatra_hindi": "कृत्तिका",
      "gender": "Girl",
      "popularity": 977,
      "lucky_number": 6,
      "lucky_color": "Pink",
      "lucky_color_hindi": "गुलाबी",
      "status": "active",
      "created_at": "2025-11-04 07:50:25"
    },
    {
      "id": 325,
      "unique_id": "english_b_girl_25",
      "letter": "b",
      "name": "Bhanita",
      "name_hindi": "भणिता",
      "meaning": "Talented, Glowing",
      "meaning_hindi": "प्रतिभाशाली, दीप्त",
      "description": "Modern feminine name",
      "description_hindi": "आधुनिक स्त्री नाम",
      "origin": "Sanskrit",
      "origin_hindi": "संस्कृत",
      "numerology": 7,
      "rashi": "Mesh",
      "rashi_hindi": "मेष",
      "nakshatra": "Ashwini",
      "nakshatra_hindi": "अश्विनी",
      "gender": "Girl",
      "popularity": 976,
      "lucky_number": 7,
      "lucky_color": "Silver",
      "lucky_color_hindi": "चांदी",
      "status": "active",
      "created_at": "2025-11-04 07:50:25"
    }
  ],
  "total": 111,
  "hasMore": true,
  "offset": 0,
  "limit": 25
}
